{
  "filetypes": {
    "text": ["txt", "json", "xml", "csv", "html", "doc", "pdf", "py"],
    "image": ["png", "bmp", "jpg", "jpeg", "gif"],
    "audio": ["mp3", "webm", "ogg", "mpeg"],
    "video": ["mp4", "wmv", "webm"],
    "binary": ["exe", "pgp", "zip", "7z", "deb"]
  }
}